30 40
1111111111111111111111111111111111111111
1000000000000000000100000000000000000001
1000000001000000000100000000000000000001
1011000001000000000100000000000000000001
1010000001000000000100000000000000000001
1010000001000000000100000000000000000001
1000000001000000000100000000000000000001
1000000001000000000100000000000000000001
1000000001000000000100000000000000000001
1000000000000000000000000000000000000001
1000000000000000000000000000000000000001
1000000000000000000000000000000000000001
1000000000000000000000000000000000000001
1000000000000000000000000000000000000001
1000000000000000000000000000000000000001
1000000000000000000000000000000000000001
1000000000000000000000000000000000000001
1000000000000000000000000000000000000001
1000000000000000000000000000000000000001
1000000000000000000000000000000000000001
1000000000000000000000000000000000000001
1000000000000000000011111111000000000001
1000000000000000000010000000000000000001
1000000000000000000010000000000000000001
1000000000000000000010000000000000000001
1000000000000000000010000000000000000001
1000000000000000000010000000000000000001
1000000000000000000010000000000000000001
1000000000000000000010000000000000000001
1111111111111111111111111111111111111111
Snake ( 4 6 ) ( 4 7 ) LEFT
Snake ( 23 5 ) ( 24 5 ) UP
StaticObject Apple ( 4 5 )
